﻿Name,Address,City,State,ZIP,Email,Phone,Notes,
Example Name 1,Example Address,Example City,Example state,Example ZIP,Example Email,Example Phone,Example Notes,
Example Name 2,Example Address,Example City,Example state,Example ZIP,Example Email,Example Phone,Example Notes,
Example Name 3,Example Address,Example City,Example state,Example ZIP,Example Email,Example Phone,Example Notes,
Example Name 4,Example Address,Example City,Example state,Example ZIP,Example Email,Example Phone,Example Notes,
Example Name 5,Example Address,Example City,Example state,Example ZIP,Example Email,Example Phone,Example Notes,
Example Name 6,Example Address,Example City,Example state,Example ZIP,Example Email,Example Phone,Example Notes,
Example Name 7,Example Address,Example City,Example state,Example ZIP,Example Email,Example Phone,Example Notes,
Example Name 8,Example Address,Example City,Example state,Example ZIP,Example Email,Example Phone,Example Notes,
Example Name 9,Example Address,Example City,Example state,Example ZIP,Example Email,Example Phone,Example Notes,
Example Name 10,Example Address,Example City,Example state,Example ZIP,Example Email,Example Phone,Example Notes,
Example Name 11,Example Address,Example City,Example state,Example ZIP,Example Email,Example Phone,Example Notes,
Example Name 12,Example Address,Example City,Example state,Example ZIP,Example Email,Example Phone,Example Notes,
Example Name 13,Example Address,Example City,Example state,Example ZIP,Example Email,Example Phone,Example Notes,
Example Name 14,Example Address,Example City,Example state,Example ZIP,Example Email,Example Phone,Example Notes,
Example Name 15,Example Address,Example City,Example state,Example ZIP,Example Email,Example Phone,Example Notes,
