<?xml version="1.0" encoding="utf-8"?>
<!-- Generator: Adobe Illustrator 23.0.3, SVG Export Plug-In . SVG Version: 6.00 Build 0)  -->
<svg version="1.1" id="Layer_1" xmlns="http://www.w3.org/2000/svg" xmlns:xlink="http://www.w3.org/1999/xlink" x="0px" y="0px"
	 viewBox="0 0 496 496" style="enable-background:new 0 0 496 496;" xml:space="preserve">
<style type="text/css">
	.st0{fill:#FFFFFF;}
</style>
<path class="st0" d="M193.4,39.4C178.3,24.3,158.2,16,136.8,16s-41.5,8.3-56.6,23.4L68.9,28.1C87.1,10,111.2,0,136.8,0
	s49.7,10,67.9,28.1L193.4,39.4z M182.1,50.7C170,38.7,153.9,32,136.8,32c-17.1,0-33.2,6.7-45.3,18.8l11.3,11.3
	C111.9,53,124,48,136.8,48s24.9,5,33.9,14.1L182.1,50.7z M114.2,73.4l11.3,11.3c6-6.1,16.6-6.1,22.6,0l11.3-11.3
	C147.3,61.3,126.3,61.3,114.2,73.4z M48,96h176c17.6,0,32,14.4,32,32v336c0,17.6-14.4,32-32,32H48c-17.6,0-32-14.4-32-32V128
	C16,110.4,30.4,96,48,96z M32,416h208V176H32V416z M240,464v-32H32v32c0,8.8,7.2,16,16,16h176C232.8,480,240,472.8,240,464z
	 M224,112H48c-8.8,0-16,7.2-16,16v32h208v-32C240,119.2,232.8,112,224,112z M96,464h80v-16H96V464z M336,307.1V192h-40V88h16V48
	c0-26.5,21.5-48,48-48s48,21.5,48,48v24h-16V48c0-17.6-14.4-32-32-32s-32,14.4-32,32v40h96v104h-40v17.4c3.8-1.3,7.9-1.7,12-1.1
	c9.1,1.5,16.4,8.5,19,17.4c4-1.6,8.5-2.2,13-1.4c11.4,1.9,20,12.4,20,24.5v8.5c3.8-1.3,7.9-1.7,12-1.1c11.4,1.9,20,12.4,20,24.5
	v102.3c0,7.2-2,14.4-5.7,20.6l-14.9,24.8c-2.2,3.7-3.4,8-3.4,12.4V496H312v-55.1c0-4.3-1.2-8.6-3.4-12.4l-16.2-27
	c-2.7-4.5-4.4-9.4-5.2-14.5l-14.9-96.7c-0.2-1.2-0.3-2.3-0.3-3.5c0-12.6,10.3-22.9,22.9-22.9c18.6,0,34.4,12.7,38.4,30.8L336,307.1z
	 M384,232v104h-16V160c0-2.4-1-4.6-2.8-6.1c-1.8-1.5-4.1-2.2-6.6-1.8c-3.7,0.6-6.6,4.4-6.6,8.7V352h-22.4l-11.9-53.7
	c-2.4-10.8-11.8-18.3-22.8-18.3c-3.8,0-6.9,3.1-6.9,6.9c0,0.4,0,0.7,0.1,1.1l14.9,96.6c0.5,3.1,1.5,6,3.1,8.7l16.2,27
	c3.7,6.2,5.7,13.3,5.7,20.6V480h112v-39.1c0-7.2,2-14.4,5.7-20.6l14.9-24.8c2.2-3.7,3.4-8,3.4-12.3V280.9c0-4.3-2.9-8.1-6.6-8.7
	c-2.4-0.4-4.8,0.2-6.6,1.8c-1.8,1.5-2.8,3.8-2.8,6.1v56h-16v-87.1c0-4.3-2.9-8.1-6.6-8.7c-2.4-0.4-4.8,0.2-6.6,1.8
	c-1.8,1.5-2.8,3.8-2.8,6.1v88h-16V232.9c0-4.3-2.9-8.1-6.6-8.7c-2.4-0.4-4.8,0.2-6.6,1.8C385,227.4,384,229.6,384,232z M336,176
	v-15.1c0-12.1,8.6-22.7,20-24.5c7-1.2,14.1,0.8,19.5,5.4c5.4,4.6,8.5,11.2,8.5,18.3v16h24v-72h-96v72H336z M189.7,269.7l-11.3-11.3
	L112,324.7l-18.3-18.3l-11.3,11.3l29.7,29.7L189.7,269.7z M136,208c-20.2,0-40,7.1-55.7,19.9l10.1,12.4c12.8-10.5,29-16.3,45.6-16.3
	c39.7,0,72,32.3,72,72c0,16.6-5.8,32.7-16.3,45.5l12.4,10.1C216.9,336,224,316.2,224,296C224,247.5,184.5,208,136,208z M136,368
	c-39.7,0-72-32.3-72-72c0-16.6,5.8-32.7,16.3-45.5l-12.4-10.1C55.1,256,48,275.8,48,296c0,48.5,39.5,88,88,88
	c20.2,0,40-7.1,55.7-19.9l-10.1-12.4C168.7,362.2,152.6,368,136,368z"/>
</svg>
